<?xml version="1.0" encoding="UTF-8" standalone="no"?>
<!-- Created with Inkscape (http://www.inkscape.org/) -->

<svg
   xmlns:dc="http://purl.org/dc/elements/1.1/"
   xmlns:cc="http://creativecommons.org/ns#"
   xmlns:rdf="http://www.w3.org/1999/02/22-rdf-syntax-ns#"
   xmlns:svg="http://www.w3.org/2000/svg"
   xmlns="http://www.w3.org/2000/svg"
   xmlns:sodipodi="http://sodipodi.sourceforge.net/DTD/sodipodi-0.dtd"
   xmlns:inkscape="http://www.inkscape.org/namespaces/inkscape"
   width="1052.3622"
   height="744.09448"
   id="svg2"
   version="1.1"
   inkscape:version="0.48.2 r9819"
   sodipodi:docname="New document 1">
  <defs
     id="defs4">
    <inkscape:path-effect
       effect="spiro"
       id="path-effect2999"
       is_visible="true" />
    <inkscape:path-effect
       effect="spiro"
       id="path-effect2995"
       is_visible="true" />
    <inkscape:path-effect
       effect="spiro"
       id="path-effect2991"
       is_visible="true" />
    <inkscape:path-effect
       effect="spiro"
       id="path-effect2987"
       is_visible="true" />
  </defs>
  <sodipodi:namedview
     id="base"
     pagecolor="#ffffff"
     bordercolor="#666666"
     borderopacity="1.0"
     inkscape:pageopacity="0.0"
     inkscape:pageshadow="2"
     inkscape:zoom="0.35"
     inkscape:cx="375"
     inkscape:cy="520"
     inkscape:document-units="px"
     inkscape:current-layer="layer1"
     showgrid="false"
     inkscape:showpageshadow="false"
     inkscape:window-width="1024"
     inkscape:window-height="576"
     inkscape:window-x="0"
     inkscape:window-y="24"
     inkscape:window-maximized="1" />
  <metadata
     id="metadata7">
    <rdf:RDF>
      <cc:Work
         rdf:about="">
        <dc:format>image/svg+xml</dc:format>
        <dc:type
           rdf:resource="http://purl.org/dc/dcmitype/StillImage" />
        <dc:title></dc:title>
      </cc:Work>
    </rdf:RDF>
  </metadata>
  <g
     inkscape:label="Layer 1"
     inkscape:groupmode="layer"
     id="layer1"
     transform="translate(0,-308.2677)">
    <path
       style="fill:#aa0000;stroke-width:25;stroke-miterlimit:4;stroke-dasharray:none"
       id="path3777"
       d="m 196.17302,515.81163 c 1.24321,4.24987 2.29853,8.90814 6.18117,11.44844 4.56341,3.05071 10.1641,4.08044 15.4448,5.27473 7.95441,1.18777 15.56129,3.81564 23.32424,5.80782 6.50674,2.47443 13.31031,3.95681 20.07838,5.50455 9.4927,2.11417 19.03663,3.61854 28.72916,4.44347 9.30788,1.05827 18.47228,0.28841 27.37158,-2.57856 1.34624,-0.60508 2.707,-1.17884 4.03872,-1.81525 1.38674,-0.66272 2.76758,-1.34081 4.1145,-2.08111 1.35938,-0.74716 5.34818,-3.14524 3.99966,-2.37866 -57.03836,32.42379 -35.7684,21.43165 -23.67793,12.58131 6.86708,-6.18692 14.38445,-11.55365 21.67299,-17.21552 7.32228,-5.43204 14.38818,-11.19155 21.58812,-16.78139 7.7937,-5.72805 14.53893,-12.66418 21.36989,-19.46697 7.99201,-8.02663 15.32357,-16.67913 22.77287,-25.20458 8.94128,-11.43473 18.73437,-22.0421 29.30012,-31.98034 21.80109,-19.30629 48.16302,-32.52321 73.61455,-46.31875 12.32576,-6.44013 24.51333,-13.24128 37.40022,-18.52933 4.74441,-1.94684 14.88157,-5.49602 19.81069,-7.25168 15.62246,-5.24848 31.98475,-7.43154 48.35883,-8.52996 9.78617,-0.77151 19.48944,-0.73391 29.06417,1.52522 7.72536,2.19181 14.3958,6.11809 20.66081,11.02997 6.29303,5.79687 12.91223,11.16295 20.11108,15.79576 6.99604,5.23045 15.1032,8.3045 23.25527,11.20678 8.36075,2.91894 17.02136,4.3461 25.80376,5.1826 12.71439,0.7693 25.47936,1.22079 38.20211,0.51832 14.5766,-0.61973 28.96138,-3.59579 42.96828,-7.55566 11.17211,-3.37846 21.73695,-8.15937 32.38334,-12.85743 1.74251,-0.87096 6.14695,-3.03711 7.97038,-4.07472 1.06777,-0.6076 4.19901,-2.55159 3.13118,-1.94411 -60.03302,34.15251 -40.02667,25.11991 -29.63941,16.37861 2.35702,-3.15732 0.83827,-10.06072 0.68772,-13.88574 -0.98769,-9.47064 0.32558,-18.57458 3.37245,-27.53545 2.73379,-7.12395 6.46401,-13.7598 8.60806,-21.10294 1.63141,-7.03985 1.60462,-14.29753 1.74323,-21.48022 0.19831,-7.6351 0.1782,-15.24227 -0.71994,-22.82877 -2.42364,-11.49507 -3.3143,-23.20873 -3.85761,-34.919 -0.38043,-14.95744 -1.84664,-29.62157 2.02314,-44.22639 1.97458,-4.67897 4.65236,-9.63074 9.19841,-12.35515 22.30796,-13.36895 31.95572,-21.10903 52.36322,-27.05759 12.77715,-3.80708 26.05845,-5.38882 39.27348,-6.78805 1.42712,-0.11391 2.85423,-0.22783 4.28134,-0.34174 0,0 -33.56806,24.77633 -33.56806,24.77633 l 0,0 c -1.35055,0.0953 -2.70111,0.19062 -4.05166,0.28593 -13.00803,1.15362 -25.98286,3.09291 -38.41631,7.23346 -15.15328,5.25218 -35.65061,18.63308 18.70648,-13.41102 1.39792,-0.8241 -2.87666,1.53415 -4.16389,2.52225 -3.44117,2.64153 -3.91238,3.96558 -6.31558,7.52132 -1.72287,4.78665 -2.62321,6.51354 -3.28539,11.727 -1.31857,10.38138 0.23641,20.96472 0.2547,31.36452 0.74105,11.49162 1.60012,23.01808 4.59064,34.19011 1.1034,7.76616 1.06815,15.50714 0.98804,23.34727 -0.004,7.44649 -0.11215,14.94626 -1.25578,22.31687 -1.58445,7.79193 -5.39705,14.55193 -8.71033,21.71025 -3.50922,8.35565 -4.99427,16.80443 -3.89717,25.87459 0.34592,5.39957 1.28923,10.91394 1.03508,16.25959 -0.91175,1.78633 -1.18773,2.84925 -3.09948,4.01167 -16.27492,9.89578 -32.35181,20.33071 -49.74575,28.17503 -10.55314,4.67192 -21.25498,8.94342 -32.39107,12.05624 -14.22588,3.60163 -28.71799,6.31494 -43.42334,6.78291 -13.02492,0.42881 -26.08882,0.3437 -39.08932,-0.63798 -9.04384,-1.05406 -18.04251,-2.70854 -26.5999,-5.91674 -8.27066,-3.27019 -16.50937,-6.67072 -23.66921,-12.07238 -7.12773,-4.90259 -13.96911,-10.14982 -20.42429,-15.91273 -5.92177,-4.38079 -12.29789,-7.84978 -19.53974,-9.53526 -9.24313,-1.64362 -18.56442,-1.57582 -27.91794,-0.95192 -15.91844,1.12584 -31.76674,3.38281 -46.86591,8.80049 -19.83823,7.14876 -38.89854,15.94555 -57.15129,26.55156 -11.55506,6.44719 -31.48833,17.62908 20.89864,-12.34275 2.11958,-1.21266 -4.15588,2.56541 -6.23526,3.84579 -6.97129,4.29254 -6.23191,3.55293 -12.8199,8.74369 -2.14752,1.69205 -4.21406,3.48444 -6.32109,5.22666 -10.52857,9.62497 -20.38864,19.87503 -28.91834,31.34472 -7.40137,8.56374 -14.72431,17.18674 -22.47649,25.43532 -6.92329,6.69759 -13.24421,14.05122 -21.00222,19.83532 -7.17814,5.58214 -14.19526,11.36434 -21.54289,16.72617 -7.23633,5.81765 -15.06916,10.87866 -21.81733,17.28213 -17.60186,14.87237 -38.52125,26.24584 -60.00437,34.47384 -9.30342,2.13476 -18.65749,2.51719 -28.14462,1.26925 -9.86214,-1.06427 -19.63011,-2.63753 -29.33926,-4.68001 -6.82024,-1.58946 -13.61559,-3.19755 -20.20181,-5.61719 -7.66963,-2.20857 -15.33325,-4.39681 -23.22945,-5.67691 -5.92861,-1.39902 -11.93395,-2.73451 -16.80929,-6.63163 -4.17451,-3.80572 -5.85113,-8.73436 -7.78368,-13.93294 0,0 37.3768,-19.98334 37.3768,-19.98334 z"
       inkscape:connector-curvature="0"
       transform="translate(0,308.2677)" />
    <path
       style="fill:#aa0000;stroke-width:25;stroke-miterlimit:4;stroke-dasharray:none"
       id="path3779"
       d="m 425.41394,220.49279 c 9.94804,9.50035 21.23408,17.53328 32.33673,25.61895 13.29353,9.46687 27.13614,18.04873 40.2255,27.80852 12.08727,9.08322 24.1094,18.27131 35.87319,27.77263 9.0201,8.29134 18.75431,16.0322 26.08087,25.93242 4.973,6.53214 8.3006,14.06871 11.5906,21.53517 2.57826,6.52788 4.96109,13.13681 7.72525,19.58659 4.04483,8.61909 9.09692,16.62766 14.72911,24.28793 5.83785,7.87282 11.39587,16.0099 17.84433,23.4004 6.73822,7.90962 13.51688,15.77559 20.99026,23.00169 10.19771,9.25148 22.0398,16.26921 33.96854,23.00231 7.63822,5.90519 17.83017,7.53975 25.07628,13.83658 9.0981,10.1556 20.07475,18.37679 30.84867,26.638 26.02026,20.18681 52.91039,39.20988 80.27058,57.52785 22.38766,14.96027 45.35703,29.07332 69.74209,40.5285 17.48519,8.27173 36.00765,13.48813 55.13995,15.94249 11.63805,1.73543 23.01232,0.70277 34.484,-1.40967 6.25518,-1.72996 3.94425,-0.82616 9.50022,-3.31863 1.25753,-0.56414 4.94544,-2.42613 3.75411,-1.73305 -60.36711,35.11992 -38.75785,23.77521 -27.78546,15.00832 5.07713,-4.40074 9.41732,-9.52399 13.76906,-14.61538 2.04055,-2.46068 3.50981,-5.30224 4.68859,-8.25506 0,0 38.64359,-18.08907 38.64359,-18.08907 l 0,0 c -1.075,3.48224 -2.8647,6.69863 -4.6652,9.8475 -4.1429,5.40544 -8.82322,10.38642 -13.56178,15.28307 -15.56072,15.2273 -36.11469,26.01602 -57.3245,30.69083 -11.67939,1.80746 -23.31879,2.36196 -35.02052,0.17242 -18.93881,-3.38914 -37.13951,-9.39839 -54.47859,-17.80737 -24.35329,-11.65947 -47.17377,-25.93865 -69.15279,-41.62204 -27.29414,-18.77536 -54.36856,-37.8566 -81.46778,-56.91162 -11.46643,-7.88552 -23.17512,-15.59978 -32.97629,-25.57553 -7.30392,-5.53148 -16.39759,-8.36244 -23.78417,-13.84429 -12.13833,-7.03813 -24.34557,-14.15345 -34.71901,-23.72265 -7.61414,-7.28223 -14.90388,-14.89984 -21.48874,-23.13694 -6.48165,-7.52015 -12.12108,-15.72884 -18.02102,-23.70654 -5.71649,-7.9321 -11.02351,-16.11272 -15.35139,-24.89277 -3.06851,-6.34488 -5.46164,-12.995 -7.8556,-19.62117 -3.03076,-7.23515 -6.26741,-14.46003 -10.9585,-20.79787 -7.01298,-9.57789 -15.72059,-17.76566 -24.62919,-25.56265 -11.83125,-9.40876 -24.08905,-18.25598 -36.01374,-27.54585 -12.91113,-9.88208 -26.73602,-18.41464 -39.91546,-27.92617 -11.41569,-8.35363 -23.05399,-16.43025 -34.09346,-25.27826 0,0 35.98167,-22.04959 35.98167,-22.04959 z"
       inkscape:connector-curvature="0"
       transform="translate(0,308.2677)" />
  </g>
</svg>
