<?xml version="1.0" encoding="UTF-8" standalone="no"?>
<!-- Created with Inkscape (http://www.inkscape.org/) -->

<svg
   xmlns:dc="http://purl.org/dc/elements/1.1/"
   xmlns:cc="http://creativecommons.org/ns#"
   xmlns:rdf="http://www.w3.org/1999/02/22-rdf-syntax-ns#"
   xmlns:svg="http://www.w3.org/2000/svg"
   xmlns="http://www.w3.org/2000/svg"
   xmlns:sodipodi="http://sodipodi.sourceforge.net/DTD/sodipodi-0.dtd"
   xmlns:inkscape="http://www.inkscape.org/namespaces/inkscape"
   width="1052.3622"
   height="744.09448"
   id="svg2"
   version="1.1"
   inkscape:version="0.48.2 r9819"
   sodipodi:docname="New document 1">
  <defs
     id="defs4">
    <inkscape:path-effect
       effect="spiro"
       id="path-effect3777"
       is_visible="true" />
    <inkscape:path-effect
       effect="spiro"
       id="path-effect3773"
       is_visible="true" />
    <inkscape:path-effect
       effect="spiro"
       id="path-effect2995"
       is_visible="true" />
    <inkscape:path-effect
       effect="spiro"
       id="path-effect2991"
       is_visible="true" />
    <inkscape:path-effect
       effect="spiro"
       id="path-effect2987"
       is_visible="true" />
  </defs>
  <sodipodi:namedview
     id="base"
     pagecolor="#ffffff"
     bordercolor="#666666"
     borderopacity="1.0"
     inkscape:pageopacity="0.0"
     inkscape:pageshadow="2"
     inkscape:zoom="0.52120562"
     inkscape:cx="392.04581"
     inkscape:cy="352.60596"
     inkscape:document-units="px"
     inkscape:current-layer="layer1"
     showgrid="false"
     borderlayer="false"
     showborder="true"
     inkscape:showpageshadow="false"
     inkscape:window-width="1024"
     inkscape:window-height="576"
     inkscape:window-x="0"
     inkscape:window-y="24"
     inkscape:window-maximized="1" />
  <metadata
     id="metadata7">
    <rdf:RDF>
      <cc:Work
         rdf:about="">
        <dc:format>image/svg+xml</dc:format>
        <dc:type
           rdf:resource="http://purl.org/dc/dcmitype/StillImage" />
        <dc:title></dc:title>
      </cc:Work>
    </rdf:RDF>
  </metadata>
  <g
     inkscape:label="Layer 1"
     inkscape:groupmode="layer"
     id="layer1"
     transform="translate(0,-308.2677)">
    <path
       style="font-size:medium;font-style:normal;font-variant:normal;font-weight:normal;font-stretch:normal;text-indent:0;text-align:start;text-decoration:none;line-height:normal;letter-spacing:normal;word-spacing:normal;text-transform:none;direction:ltr;block-progression:tb;writing-mode:lr-tb;text-anchor:start;baseline-shift:baseline;color:#000000;fill:#000000;fill-opacity:1;stroke:none;stroke-width:10;marker:none;visibility:visible;display:inline;overflow:visible;enable-background:accumulate;font-family:Sans;-inkscape-font-specification:Sans"
       d="m 698.73931,364.12867 c -13.74193,0.41455 -26.22268,3.42539 -37.65625,8.375 -22.86714,9.89922 -41.42877,27.18236 -58.46875,45.90625 -34.07996,37.44779 -62.51523,80.14837 -104,87.0625 -28.24436,4.70739 -59.00928,-11.30932 -89.71875,-33.75 -30.70947,-22.44068 -60.92935,-50.81585 -89.0625,-68.71875 -14.06657,-8.95145 -27.6834,-15.40165 -41.03125,-16.78125 -13.34785,-1.3796 -26.41022,2.8755 -37.21875,14.1875 -21.61707,22.62401 -36.14798,71.48414 -44.28125,163.84375 -0.22927,2.60992 1.93691,5.19315 4.54684,5.42224 2.60994,0.22908 5.19301,-1.93729 5.42191,-4.54724 8.06552,-91.59017 23.51123,-138.9531 41.53125,-157.8125 9.01001,-9.4297 18.16304,-12.24185 28.96875,-11.125 10.80571,1.11685 23.28186,6.71914 36.6875,15.25 26.81129,17.06171 57.15112,45.39015 88.5625,68.34375 31.41138,22.9536 64.32804,81.73253 97.25,76.24554 47.16915,-7.86153 76.42292,-94.25003 109.75,-130.87054 16.66354,-18.31025 34.26808,-34.48035 55.03125,-43.46875 20.76317,-8.9884 44.75248,-11.14501 75.65625,-0.84375 7.4522,2.48407 11.99489,6.16589 14.90625,10.8125 2.91136,4.64661 4.22019,10.52117 4.09375,17.5 -0.25289,13.95766 -6.52265,31.91118 -14.96875,49.34375 -8.4461,17.43257 -18.95825,34.41945 -27.21875,47.1875 -4.13025,6.38402 -7.67982,11.71135 -10.1875,15.59375 -1.25384,1.9412 -2.24668,3.49362 -2.96875,4.78125 -0.36103,0.64382 -0.6508,1.20334 -0.9375,1.9375 -0.14335,0.36708 -0.30134,0.75151 -0.40625,1.53125 -0.10491,0.77974 -0.36611,2.57138 1.46875,4.40625 4.34819,4.34819 10.69716,6.51805 18.71875,8.5 8.02159,1.98195 14.19875,22.74767 24.99107,24.16071 21.58463,2.82608 50.94397,-14.02798 74.38393,-9.66071 23.43996,4.36727 5.15924,35.92509 16.74554,45.625 5.79315,4.84995 48.57246,-14.80049 49.66071,-8.1875 1.08825,6.61299 -0.25077,14.84528 -5.4375,25.21875 -18.79886,37.59773 -46.66749,52.14638 -79.96875,55.4375 -33.30126,3.29112 -71.95623,-5.4649 -109.625,-16.125 -37.66877,-10.6601 -73.51833,-37.45986 -103.81696,-40.97321 -15.14931,-1.75667 -29.58685,12.991 -41.15179,17.59821 -11.56494,4.60721 -20.68485,13.68021 -25.6875,27.4375 -5.20999,14.32747 -2.12924,30.38285 5.1875,47.09375 7.31674,16.7109 -30.87419,101.55556 -17.54059,119.8395 26.6672,36.56787 109.89936,8.40719 128.16559,43.4105 9.13311,17.50165 14.38634,33.87461 13.71875,48.125 -0.66759,14.25039 -6.77738,26.64296 -22.0625,37.8125 -30.57024,22.33909 -204.42156,-19.99636 -331.14957,-19.99636 -2.64156,-0.0374 100.45336,59.91703 100.45336,62.55889 0,2.6418 2.42965,5.0373 5.07121,5 127.5032,0 197.11615,-14.32008 231.53125,-39.46878 17.20755,-12.57435 25.3285,-28.43537 26.125,-45.4375 0.7965,-17.00213 -5.26762,-34.86814 -14.84375,-53.21875 -19.15227,-36.70121 41.29465,-54.62528 14.98155,-90.70759 -13.15655,-18.04116 -118.51307,-56.43013 -125.29405,-71.91741 -6.78098,-15.48728 -8.87747,-28.85257 -4.9375,-39.6875 4.19963,-11.54897 10.80045,-17.89761 20,-21.5625 9.19955,-3.66489 21.32177,-4.30757 35.5625,-2.65625 28.48145,3.30264 64.97527,15.62301 102.96875,26.375 37.99348,10.75199 77.59397,19.97061 113.34375,16.4375 35.74978,-3.53311 67.75864,-20.61103 87.90625,-60.90625 5.82907,-11.65814 7.86132,-22.09061 6.34375,-31.3125 -1.51758,-9.2219 -6.63203,-16.88976 -13.78125,-22.875 -14.29845,-11.97049 -36.54451,-18.29464 -60.625,-22.78125 -24.08049,-4.48661 -50.08416,-6.89989 -71.375,-9.6875 -10.64542,-1.39381 -20.11023,-2.8771 -27.4375,-4.6875 -5.08968,-1.25755 -8.53583,-2.74932 -11.0625,-4.125 0.41422,-0.66413 0.64714,-1.06966 1.1875,-1.90625 2.42448,-3.75359 6.01001,-9.10547 10.1875,-15.5625 8.35497,-12.91406 19.0603,-30.18566 27.8125,-48.25 8.7522,-18.06434 46.38082,-38.27971 46.68304,-54.95982 0.15111,-8.34005 -32.13753,-14.83405 -36.33929,-21.54018 -4.20176,-6.70613 -11.0139,-11.93172 -20.21875,-15 -16.40616,-5.46872 -31.38307,-7.66455 -45.125,-7.25 z"
       id="path2997"
       inkscape:connector-curvature="0"
       sodipodi:nodetypes="sssssssscscssssssssssssssssssssssssssssssssscscsssssssssssssssscsssssss" />
  </g>
</svg>
